{
    "name": "prohibited-build-from-vehicle",
    "version": "1.1.1",
    "factorio_version": "0.16",
    "title": "Prohibited build from vehicle",
    "author": "ZwerOxotnik",
    "contact": "zweroxotnik@gmail.com",
    "source": "https://gitlab.com/ZwerOxotnik/prohibited-build-from-vehicle",
    "homepage": "https://forums.factorio.com/viewtopic.php?f=190&t=64622",
    "description": "Players are forbidden build from vehicle.",
    "dependencies": []
}
